{
	"template-module":{
		"template-location" : {
			"_handlebar-root" : "E:/bobodevil/code/vertx-webserver-ssi/web-module/template/handlebar"
		}
	},
	"shopping-cart":{
		"placeholder":"empty"
	},
	"web-module":{
		"_web_root" : "E:/bobodevil/code/vertx-webserver-ssi/web-module/web"
	},
	"cms-module":{
		"placeholder" : "placeholder"
	},
	"proxy-module":{
		"cms-proxy-setting" : {
			"address" : "127.0.0.1",
			"port" : 8282,
			"maxPoolSize" : 10
		},
		"api-proxy-setting" : {
			"address" : "127.0.0.1",
			"port" : 8283,
			"maxPoolSize" : 10	
		}
		
	},
	"logger-module":{
		"log-location" : "placeholder"
	},
	"session-module": {
		"session-manager" :	{
		    "address": "com.bobodevil.session-manager",
		    "timeout": 900000,
		    "cleaner": "com.bobodevil.session-cleanup",
		    "prefix": "com.bobodevil.session-client."
		}
		
	},
	"mongo-persistor" : {
		"address": "mongodb-persistor",
		"host": "127.0.0.1",
		"port": 27017,
		"pool_size": 10,
		"db_name": "vertx"
	}
}